{

    "editor.minimap.enabled": false,
    "editor.fontSize": 16,
    "editor.renderWhitespace": "all",
    "editor.tabSize": 4,
    "editor.wordWrap": "on",
    "editor.insertSpaces": true,
    "editor.detectIndentation": false,
    "files.exclude": {
        "**/.git": true,
        "**/.svn": true,
        "**/.DS_Store": true
    },
    "workbench.statusBar.visible": true,
    "workbench.activityBar.visible": true,
    "workbench.startupEditor": "newUntitledFile",
    "gitlens.advanced.messages": {
        "suppressShowKeyBindingsNotice": true
    },
    "gitlens.historyExplorer.enabled": true,
    "cSpell.userWords": [
        "Backend",
        "Batchable",
        "Callout",
        "Callouts",
        "Mediabank",
        "Pricebook",
        "QUICKPAY",
        "Queueable",
        "SBQQ",
        "SUBQUERY",
        "Schedulable",
        "URLFOR",
        "Undelete",
        "cldbilling",
        "cldss",
        "cloudity",
        "config",
        "deploy",
        "deserialize",
        "dev",
        "guid",
        "picklist",
        "sfdc",
        "slds",
        "sobject",
        "stateful",
        "stylesheet",
        "upsert",
        "upserting"
    ],
    "cSpell.language": "en,en-GB,en-US,pl,pl-PL",
    "cSpell.enabledLanguageIds": [
        "apex",
        "asciidoc",
        "c",
        "cpp",
        "csharp",
        "css",
        "go",
        "handlebars",
        "html",
        "jade",
        "javascript",
        "javascriptreact",
        "json",
        "latex",
        "less",
        "markdown",
        "php",
        "plaintext",
        "pub",
        "python",
        "restructuredtext",
        "rust",
        "scss",
        "text",
        "typescript",
        "typescriptreact",
        "visualforce",
        "xml",
        "yml"
    ],
    "breadcrumbs.enabled": true,
    "workbench.editor.enablePreview": false,
    "workbench.editor.enablePreviewFromQuickOpen": false,
    "window.zoomLevel": 0,
    "salesforcedx-vscode-apex.java.home": "/usr/lib/jvm/java-8-openjdk-amd64",
    "workbench.editor.highlightModifiedTabs": true,
    "salesforcedx-vscode-apex.enable-rename": true,
	"sync.gist": "f0a9bff3e1f2adef8bbd2059a05b3f3d",
	"explorer.confirmDelete": false,
	"gitlens.views.fileHistory.enabled": true,
	"gitlens.views.lineHistory.enabled": true
}